[
  {
    "children": [
      2,
      3,
      4,
      5,
      6,
      7,
      8,
      9,
      10,
      11,
      12,
      13,
      14,
      15,
      16,
      17,
      18,
      19,
      20,
      21,
      22,
      23,
      24,
      25,
      26,
      27,
      28,
      29,
      30,
      31,
      32,
      33,
      34,
      35,
      36,
      37
    ],
    "dataType": null,
    "dist2sink": 25,
    "id": 0,
    "operation": "source",
    "parents": [],
    "target": null
  },
  {
    "children": [],
    "dataType": null,
    "dist2sink": 0,
    "id": 1,
    "operation": "sink",
    "parents": [
      192,
      172,
      190,
      226,
      200,
      178,
      216,
      174,
      206,
      210,
      214,
      220,
      176,
      170,
      224,
      184,
      222,
      194,
      202,
      198,
      204,
      196,
      208,
      188,
      218,
      180,
      186,
      182,
      212
    ],
    "target": null
  },
  {
    "children": [
      169,
      171,
      173,
      175,
      177,
      179,
      181,
      183,
      185,
      187,
      189,
      191,
      193,
      195,
      197,
      199,
      201,
      203,
      205,
      207,
      209,
      211,
      213,
      215,
      217,
      219,
      221,
      223,
      225
    ],
    "dataType": "constant",
    "dist2sink": 3,
    "id": 2,
    "operation": "mu",
    "parents": [
      0
    ],
    "target": null
  },
  {
    "children": [
      38,
      44,
      50,
      140,
      143,
      146
    ],
    "dataType": "model_input",
    "dist2sink": 24,
    "id": 3,
    "operation": "x[0]",
    "parents": [
      0
    ],
    "target": null
  },
  {
    "children": [
      39,
      45,
      51,
      141,
      144,
      147
    ],
    "dataType": "model_input",
    "dist2sink": 24,
    "id": 4,
    "operation": "x[1]",
    "parents": [
      0
    ],
    "target": null
  },
  {
    "children": [
      40,
      46,
      52,
      142,
      145,
      148
    ],
    "dataType": "model_input",
    "dist2sink": 23,
    "id": 5,
    "operation": "x[2]",
    "parents": [
      0
    ],
    "target": null
  },
  {
    "children": [
      96
    ],
    "dataType": "model_output",
    "dist2sink": 12,
    "id": 6,
    "operation": "y[1]",
    "parents": [
      0
    ],
    "target": null
  },
  {
    "children": [
      97
    ],
    "dataType": "model_output",
    "dist2sink": 12,
    "id": 7,
    "operation": "y[2]",
    "parents": [
      0
    ],
    "target": null
  },
  {
    "children": [
      38,
      170
    ],
    "dataType": "model",
    "dist2sink": 24,
    "id": 8,
    "operation": "w12[1][0]",
    "parents": [
      0
    ],
    "target": null
  },
  {
    "children": [
      39,
      172
    ],
    "dataType": "model",
    "dist2sink": 24,
    "id": 9,
    "operation": "w12[1][1]",
    "parents": [
      0
    ],
    "target": null
  },
  {
    "children": [
      40,
      174
    ],
    "dataType": "model",
    "dist2sink": 23,
    "id": 10,
    "operation": "w12[1][2]",
    "parents": [
      0
    ],
    "target": null
  },
  {
    "children": [
      44,
      176
    ],
    "dataType": "model",
    "dist2sink": 24,
    "id": 11,
    "operation": "w12[2][0]",
    "parents": [
      0
    ],
    "target": null
  },
  {
    "children": [
      45,
      178
    ],
    "dataType": "model",
    "dist2sink": 24,
    "id": 12,
    "operation": "w12[2][1]",
    "parents": [
      0
    ],
    "target": null
  },
  {
    "children": [
      46,
      180
    ],
    "dataType": "model",
    "dist2sink": 23,
    "id": 13,
    "operation": "w12[2][2]",
    "parents": [
      0
    ],
    "target": null
  },
  {
    "children": [
      50,
      182
    ],
    "dataType": "model",
    "dist2sink": 24,
    "id": 14,
    "operation": "w12[3][0]",
    "parents": [
      0
    ],
    "target": null
  },
  {
    "children": [
      51,
      184
    ],
    "dataType": "model",
    "dist2sink": 24,
    "id": 15,
    "operation": "w12[3][1]",
    "parents": [
      0
    ],
    "target": null
  },
  {
    "children": [
      52,
      186
    ],
    "dataType": "model",
    "dist2sink": 23,
    "id": 16,
    "operation": "w12[3][2]",
    "parents": [
      0
    ],
    "target": null
  },
  {
    "children": [
      56,
      204
    ],
    "dataType": "model",
    "dist2sink": 20,
    "id": 17,
    "operation": "w23[1][0]",
    "parents": [
      0
    ],
    "target": null
  },
  {
    "children": [
      57,
      119,
      206
    ],
    "dataType": "model",
    "dist2sink": 20,
    "id": 18,
    "operation": "w23[1][1]",
    "parents": [
      0
    ],
    "target": null
  },
  {
    "children": [
      58,
      127,
      208
    ],
    "dataType": "model",
    "dist2sink": 20,
    "id": 19,
    "operation": "w23[1][2]",
    "parents": [
      0
    ],
    "target": null
  },
  {
    "children": [
      59,
      135,
      210
    ],
    "dataType": "model",
    "dist2sink": 20,
    "id": 20,
    "operation": "w23[1][3]",
    "parents": [
      0
    ],
    "target": null
  },
  {
    "children": [
      64,
      212
    ],
    "dataType": "model",
    "dist2sink": 20,
    "id": 21,
    "operation": "w23[2][0]",
    "parents": [
      0
    ],
    "target": null
  },
  {
    "children": [
      65,
      120,
      214
    ],
    "dataType": "model",
    "dist2sink": 20,
    "id": 22,
    "operation": "w23[2][1]",
    "parents": [
      0
    ],
    "target": null
  },
  {
    "children": [
      66,
      128,
      216
    ],
    "dataType": "model",
    "dist2sink": 20,
    "id": 23,
    "operation": "w23[2][2]",
    "parents": [
      0
    ],
    "target": null
  },
  {
    "children": [
      67,
      136,
      218
    ],
    "dataType": "model",
    "dist2sink": 20,
    "id": 24,
    "operation": "w23[2][3]",
    "parents": [
      0
    ],
    "target": null
  },
  {
    "children": [
      72,
      220
    ],
    "dataType": "model",
    "dist2sink": 20,
    "id": 25,
    "operation": "w23[3][0]",
    "parents": [
      0
    ],
    "target": null
  },
  {
    "children": [
      73,
      121,
      222
    ],
    "dataType": "model",
    "dist2sink": 20,
    "id": 26,
    "operation": "w23[3][1]",
    "parents": [
      0
    ],
    "target": null
  },
  {
    "children": [
      74,
      129,
      224
    ],
    "dataType": "model",
    "dist2sink": 20,
    "id": 27,
    "operation": "w23[3][2]",
    "parents": [
      0
    ],
    "target": null
  },
  {
    "children": [
      75,
      137,
      226
    ],
    "dataType": "model",
    "dist2sink": 20,
    "id": 28,
    "operation": "w23[3][3]",
    "parents": [
      0
    ],
    "target": null
  },
  {
    "children": [
      80,
      188
    ],
    "dataType": "model",
    "dist2sink": 16,
    "id": 29,
    "operation": "w34[1][0]",
    "parents": [
      0
    ],
    "target": null
  },
  {
    "children": [
      81,
      101,
      190
    ],
    "dataType": "model",
    "dist2sink": 16,
    "id": 30,
    "operation": "w34[1][1]",
    "parents": [
      0
    ],
    "target": null
  },
  {
    "children": [
      82,
      107,
      192
    ],
    "dataType": "model",
    "dist2sink": 16,
    "id": 31,
    "operation": "w34[1][2]",
    "parents": [
      0
    ],
    "target": null
  },
  {
    "children": [
      83,
      113,
      194
    ],
    "dataType": "model",
    "dist2sink": 16,
    "id": 32,
    "operation": "w34[1][3]",
    "parents": [
      0
    ],
    "target": null
  },
  {
    "children": [
      88,
      196
    ],
    "dataType": "model",
    "dist2sink": 16,
    "id": 33,
    "operation": "w34[2][0]",
    "parents": [
      0
    ],
    "target": null
  },
  {
    "children": [
      89,
      102,
      198
    ],
    "dataType": "model",
    "dist2sink": 16,
    "id": 34,
    "operation": "w34[2][1]",
    "parents": [
      0
    ],
    "target": null
  },
  {
    "children": [
      90,
      108,
      200
    ],
    "dataType": "model",
    "dist2sink": 16,
    "id": 35,
    "operation": "w34[2][2]",
    "parents": [
      0
    ],
    "target": null
  },
  {
    "children": [
      91,
      114,
      202
    ],
    "dataType": "model",
    "dist2sink": 16,
    "id": 36,
    "operation": "w34[2][3]",
    "parents": [
      0
    ],
    "target": null
  },
  {
    "children": [
      56,
      64,
      72,
      80,
      88,
      98,
      104,
      110,
      116,
      124,
      132,
      149,
      153,
      157,
      161,
      165
    ],
    "dataType": "constant",
    "dist2sink": 20,
    "id": 37,
    "operation": "1",
    "parents": [
      0
    ],
    "target": "a3[0]"
  },
  {
    "children": [
      41
    ],
    "dataType": null,
    "dist2sink": 23,
    "id": 38,
    "operation": "*",
    "parents": [
      8,
      3
    ],
    "target": null
  },
  {
    "children": [
      41
    ],
    "dataType": null,
    "dist2sink": 23,
    "id": 39,
    "operation": "*",
    "parents": [
      9,
      4
    ],
    "target": null
  },
  {
    "children": [
      42
    ],
    "dataType": null,
    "dist2sink": 22,
    "id": 40,
    "operation": "*",
    "parents": [
      10,
      5
    ],
    "target": null
  },
  {
    "children": [
      42
    ],
    "dataType": null,
    "dist2sink": 22,
    "id": 41,
    "operation": "+",
    "parents": [
      38,
      39
    ],
    "target": null
  },
  {
    "children": [
      43
    ],
    "dataType": null,
    "dist2sink": 21,
    "id": 42,
    "operation": "+",
    "parents": [
      41,
      40
    ],
    "target": null
  },
  {
    "children": [
      57,
      65,
      73,
      116,
      117,
      150,
      154,
      158
    ],
    "dataType": null,
    "dist2sink": 20,
    "id": 43,
    "operation": "sigmoid",
    "parents": [
      42
    ],
    "target": "a2[1]"
  },
  {
    "children": [
      47
    ],
    "dataType": null,
    "dist2sink": 23,
    "id": 44,
    "operation": "*",
    "parents": [
      11,
      3
    ],
    "target": null
  },
  {
    "children": [
      47
    ],
    "dataType": null,
    "dist2sink": 23,
    "id": 45,
    "operation": "*",
    "parents": [
      12,
      4
    ],
    "target": null
  },
  {
    "children": [
      48
    ],
    "dataType": null,
    "dist2sink": 22,
    "id": 46,
    "operation": "*",
    "parents": [
      13,
      5
    ],
    "target": null
  },
  {
    "children": [
      48
    ],
    "dataType": null,
    "dist2sink": 22,
    "id": 47,
    "operation": "+",
    "parents": [
      44,
      45
    ],
    "target": null
  },
  {
    "children": [
      49
    ],
    "dataType": null,
    "dist2sink": 21,
    "id": 48,
    "operation": "+",
    "parents": [
      47,
      46
    ],
    "target": null
  },
  {
    "children": [
      58,
      66,
      74,
      124,
      125,
      151,
      155,
      159
    ],
    "dataType": null,
    "dist2sink": 20,
    "id": 49,
    "operation": "sigmoid",
    "parents": [
      48
    ],
    "target": "a2[2]"
  },
  {
    "children": [
      53
    ],
    "dataType": null,
    "dist2sink": 23,
    "id": 50,
    "operation": "*",
    "parents": [
      14,
      3
    ],
    "target": null
  },
  {
    "children": [
      53
    ],
    "dataType": null,
    "dist2sink": 23,
    "id": 51,
    "operation": "*",
    "parents": [
      15,
      4
    ],
    "target": null
  },
  {
    "children": [
      54
    ],
    "dataType": null,
    "dist2sink": 22,
    "id": 52,
    "operation": "*",
    "parents": [
      16,
      5
    ],
    "target": null
  },
  {
    "children": [
      54
    ],
    "dataType": null,
    "dist2sink": 22,
    "id": 53,
    "operation": "+",
    "parents": [
      50,
      51
    ],
    "target": null
  },
  {
    "children": [
      55
    ],
    "dataType": null,
    "dist2sink": 21,
    "id": 54,
    "operation": "+",
    "parents": [
      53,
      52
    ],
    "target": null
  },
  {
    "children": [
      59,
      67,
      75,
      132,
      133,
      152,
      156,
      160
    ],
    "dataType": null,
    "dist2sink": 20,
    "id": 55,
    "operation": "sigmoid",
    "parents": [
      54
    ],
    "target": "a2[3]"
  },
  {
    "children": [
      60
    ],
    "dataType": null,
    "dist2sink": 19,
    "id": 56,
    "operation": "*",
    "parents": [
      17,
      37
    ],
    "target": null
  },
  {
    "children": [
      60
    ],
    "dataType": null,
    "dist2sink": 19,
    "id": 57,
    "operation": "*",
    "parents": [
      18,
      43
    ],
    "target": null
  },
  {
    "children": [
      61
    ],
    "dataType": null,
    "dist2sink": 19,
    "id": 58,
    "operation": "*",
    "parents": [
      19,
      49
    ],
    "target": null
  },
  {
    "children": [
      61
    ],
    "dataType": null,
    "dist2sink": 19,
    "id": 59,
    "operation": "*",
    "parents": [
      20,
      55
    ],
    "target": null
  },
  {
    "children": [
      62
    ],
    "dataType": null,
    "dist2sink": 18,
    "id": 60,
    "operation": "+",
    "parents": [
      56,
      57
    ],
    "target": null
  },
  {
    "children": [
      62
    ],
    "dataType": null,
    "dist2sink": 18,
    "id": 61,
    "operation": "+",
    "parents": [
      58,
      59
    ],
    "target": null
  },
  {
    "children": [
      63
    ],
    "dataType": null,
    "dist2sink": 17,
    "id": 62,
    "operation": "+",
    "parents": [
      60,
      61
    ],
    "target": null
  },
  {
    "children": [
      81,
      89,
      98,
      99,
      162,
      166
    ],
    "dataType": null,
    "dist2sink": 16,
    "id": 63,
    "operation": "sigmoid",
    "parents": [
      62
    ],
    "target": "a3[1]"
  },
  {
    "children": [
      68
    ],
    "dataType": null,
    "dist2sink": 19,
    "id": 64,
    "operation": "*",
    "parents": [
      21,
      37
    ],
    "target": null
  },
  {
    "children": [
      68
    ],
    "dataType": null,
    "dist2sink": 19,
    "id": 65,
    "operation": "*",
    "parents": [
      22,
      43
    ],
    "target": null
  },
  {
    "children": [
      69
    ],
    "dataType": null,
    "dist2sink": 19,
    "id": 66,
    "operation": "*",
    "parents": [
      23,
      49
    ],
    "target": null
  },
  {
    "children": [
      69
    ],
    "dataType": null,
    "dist2sink": 19,
    "id": 67,
    "operation": "*",
    "parents": [
      24,
      55
    ],
    "target": null
  },
  {
    "children": [
      70
    ],
    "dataType": null,
    "dist2sink": 18,
    "id": 68,
    "operation": "+",
    "parents": [
      64,
      65
    ],
    "target": null
  },
  {
    "children": [
      70
    ],
    "dataType": null,
    "dist2sink": 18,
    "id": 69,
    "operation": "+",
    "parents": [
      66,
      67
    ],
    "target": null
  },
  {
    "children": [
      71
    ],
    "dataType": null,
    "dist2sink": 17,
    "id": 70,
    "operation": "+",
    "parents": [
      68,
      69
    ],
    "target": null
  },
  {
    "children": [
      82,
      90,
      104,
      105,
      163,
      167
    ],
    "dataType": null,
    "dist2sink": 16,
    "id": 71,
    "operation": "sigmoid",
    "parents": [
      70
    ],
    "target": "a3[2]"
  },
  {
    "children": [
      76
    ],
    "dataType": null,
    "dist2sink": 19,
    "id": 72,
    "operation": "*",
    "parents": [
      25,
      37
    ],
    "target": null
  },
  {
    "children": [
      76
    ],
    "dataType": null,
    "dist2sink": 19,
    "id": 73,
    "operation": "*",
    "parents": [
      26,
      43
    ],
    "target": null
  },
  {
    "children": [
      77
    ],
    "dataType": null,
    "dist2sink": 19,
    "id": 74,
    "operation": "*",
    "parents": [
      27,
      49
    ],
    "target": null
  },
  {
    "children": [
      77
    ],
    "dataType": null,
    "dist2sink": 19,
    "id": 75,
    "operation": "*",
    "parents": [
      28,
      55
    ],
    "target": null
  },
  {
    "children": [
      78
    ],
    "dataType": null,
    "dist2sink": 18,
    "id": 76,
    "operation": "+",
    "parents": [
      72,
      73
    ],
    "target": null
  },
  {
    "children": [
      78
    ],
    "dataType": null,
    "dist2sink": 18,
    "id": 77,
    "operation": "+",
    "parents": [
      74,
      75
    ],
    "target": null
  },
  {
    "children": [
      79
    ],
    "dataType": null,
    "dist2sink": 17,
    "id": 78,
    "operation": "+",
    "parents": [
      76,
      77
    ],
    "target": null
  },
  {
    "children": [
      83,
      91,
      110,
      111,
      164,
      168
    ],
    "dataType": null,
    "dist2sink": 16,
    "id": 79,
    "operation": "sigmoid",
    "parents": [
      78
    ],
    "target": "a3[3]"
  },
  {
    "children": [
      84
    ],
    "dataType": null,
    "dist2sink": 15,
    "id": 80,
    "operation": "*",
    "parents": [
      29,
      37
    ],
    "target": null
  },
  {
    "children": [
      84
    ],
    "dataType": null,
    "dist2sink": 15,
    "id": 81,
    "operation": "*",
    "parents": [
      30,
      63
    ],
    "target": null
  },
  {
    "children": [
      85
    ],
    "dataType": null,
    "dist2sink": 15,
    "id": 82,
    "operation": "*",
    "parents": [
      31,
      71
    ],
    "target": null
  },
  {
    "children": [
      85
    ],
    "dataType": null,
    "dist2sink": 15,
    "id": 83,
    "operation": "*",
    "parents": [
      32,
      79
    ],
    "target": null
  },
  {
    "children": [
      86
    ],
    "dataType": null,
    "dist2sink": 14,
    "id": 84,
    "operation": "+",
    "parents": [
      80,
      81
    ],
    "target": null
  },
  {
    "children": [
      86
    ],
    "dataType": null,
    "dist2sink": 14,
    "id": 85,
    "operation": "+",
    "parents": [
      82,
      83
    ],
    "target": null
  },
  {
    "children": [
      87
    ],
    "dataType": null,
    "dist2sink": 13,
    "id": 86,
    "operation": "+",
    "parents": [
      84,
      85
    ],
    "target": null
  },
  {
    "children": [
      96
    ],
    "dataType": null,
    "dist2sink": 12,
    "id": 87,
    "operation": "sigmoid",
    "parents": [
      86
    ],
    "target": "h[1]"
  },
  {
    "children": [
      92
    ],
    "dataType": null,
    "dist2sink": 15,
    "id": 88,
    "operation": "*",
    "parents": [
      33,
      37
    ],
    "target": null
  },
  {
    "children": [
      92
    ],
    "dataType": null,
    "dist2sink": 15,
    "id": 89,
    "operation": "*",
    "parents": [
      34,
      63
    ],
    "target": null
  },
  {
    "children": [
      93
    ],
    "dataType": null,
    "dist2sink": 15,
    "id": 90,
    "operation": "*",
    "parents": [
      35,
      71
    ],
    "target": null
  },
  {
    "children": [
      93
    ],
    "dataType": null,
    "dist2sink": 15,
    "id": 91,
    "operation": "*",
    "parents": [
      36,
      79
    ],
    "target": null
  },
  {
    "children": [
      94
    ],
    "dataType": null,
    "dist2sink": 14,
    "id": 92,
    "operation": "+",
    "parents": [
      88,
      89
    ],
    "target": null
  },
  {
    "children": [
      94
    ],
    "dataType": null,
    "dist2sink": 14,
    "id": 93,
    "operation": "+",
    "parents": [
      90,
      91
    ],
    "target": null
  },
  {
    "children": [
      95
    ],
    "dataType": null,
    "dist2sink": 13,
    "id": 94,
    "operation": "+",
    "parents": [
      92,
      93
    ],
    "target": null
  },
  {
    "children": [
      97
    ],
    "dataType": null,
    "dist2sink": 12,
    "id": 95,
    "operation": "sigmoid",
    "parents": [
      94
    ],
    "target": "h[2]"
  },
  {
    "children": [
      101,
      107,
      113,
      161,
      162,
      163,
      164
    ],
    "dataType": null,
    "dist2sink": 11,
    "id": 96,
    "operation": "-",
    "parents": [
      87,
      6
    ],
    "target": "d4[1]"
  },
  {
    "children": [
      102,
      108,
      114,
      165,
      166,
      167,
      168
    ],
    "dataType": null,
    "dist2sink": 11,
    "id": 97,
    "operation": "-",
    "parents": [
      95,
      7
    ],
    "target": "d4[2]"
  },
  {
    "children": [
      99
    ],
    "dataType": null,
    "dist2sink": 10,
    "id": 98,
    "operation": "-",
    "parents": [
      37,
      63
    ],
    "target": null
  },
  {
    "children": [
      100
    ],
    "dataType": null,
    "dist2sink": 9,
    "id": 99,
    "operation": "*",
    "parents": [
      63,
      98
    ],
    "target": null
  },
  {
    "children": [
      119,
      127,
      135,
      149,
      150,
      151,
      152
    ],
    "dataType": null,
    "dist2sink": 8,
    "id": 100,
    "operation": "*",
    "parents": [
      103,
      99
    ],
    "target": "d3[1]"
  },
  {
    "children": [
      103
    ],
    "dataType": null,
    "dist2sink": 10,
    "id": 101,
    "operation": "*",
    "parents": [
      30,
      96
    ],
    "target": null
  },
  {
    "children": [
      103
    ],
    "dataType": null,
    "dist2sink": 10,
    "id": 102,
    "operation": "*",
    "parents": [
      34,
      97
    ],
    "target": null
  },
  {
    "children": [
      100
    ],
    "dataType": null,
    "dist2sink": 9,
    "id": 103,
    "operation": "+",
    "parents": [
      101,
      102
    ],
    "target": null
  },
  {
    "children": [
      105
    ],
    "dataType": null,
    "dist2sink": 10,
    "id": 104,
    "operation": "-",
    "parents": [
      37,
      71
    ],
    "target": null
  },
  {
    "children": [
      106
    ],
    "dataType": null,
    "dist2sink": 9,
    "id": 105,
    "operation": "*",
    "parents": [
      71,
      104
    ],
    "target": null
  },
  {
    "children": [
      120,
      128,
      136,
      153,
      154,
      155,
      156
    ],
    "dataType": null,
    "dist2sink": 8,
    "id": 106,
    "operation": "*",
    "parents": [
      109,
      105
    ],
    "target": "d3[2]"
  },
  {
    "children": [
      109
    ],
    "dataType": null,
    "dist2sink": 10,
    "id": 107,
    "operation": "*",
    "parents": [
      31,
      96
    ],
    "target": null
  },
  {
    "children": [
      109
    ],
    "dataType": null,
    "dist2sink": 10,
    "id": 108,
    "operation": "*",
    "parents": [
      35,
      97
    ],
    "target": null
  },
  {
    "children": [
      106
    ],
    "dataType": null,
    "dist2sink": 9,
    "id": 109,
    "operation": "+",
    "parents": [
      107,
      108
    ],
    "target": null
  },
  {
    "children": [
      111
    ],
    "dataType": null,
    "dist2sink": 9,
    "id": 110,
    "operation": "-",
    "parents": [
      37,
      79
    ],
    "target": null
  },
  {
    "children": [
      112
    ],
    "dataType": null,
    "dist2sink": 8,
    "id": 111,
    "operation": "*",
    "parents": [
      79,
      110
    ],
    "target": null
  },
  {
    "children": [
      121,
      129,
      137,
      157,
      158,
      159,
      160
    ],
    "dataType": null,
    "dist2sink": 7,
    "id": 112,
    "operation": "*",
    "parents": [
      115,
      111
    ],
    "target": "d3[3]"
  },
  {
    "children": [
      115
    ],
    "dataType": null,
    "dist2sink": 9,
    "id": 113,
    "operation": "*",
    "parents": [
      32,
      96
    ],
    "target": null
  },
  {
    "children": [
      115
    ],
    "dataType": null,
    "dist2sink": 9,
    "id": 114,
    "operation": "*",
    "parents": [
      36,
      97
    ],
    "target": null
  },
  {
    "children": [
      112
    ],
    "dataType": null,
    "dist2sink": 8,
    "id": 115,
    "operation": "+",
    "parents": [
      113,
      114
    ],
    "target": null
  },
  {
    "children": [
      117
    ],
    "dataType": null,
    "dist2sink": 6,
    "id": 116,
    "operation": "-",
    "parents": [
      37,
      43
    ],
    "target": null
  },
  {
    "children": [
      118
    ],
    "dataType": null,
    "dist2sink": 5,
    "id": 117,
    "operation": "*",
    "parents": [
      43,
      116
    ],
    "target": null
  },
  {
    "children": [
      140,
      141,
      142
    ],
    "dataType": null,
    "dist2sink": 4,
    "id": 118,
    "operation": "*",
    "parents": [
      123,
      117
    ],
    "target": "d2[1]"
  },
  {
    "children": [
      122
    ],
    "dataType": null,
    "dist2sink": 7,
    "id": 119,
    "operation": "*",
    "parents": [
      18,
      100
    ],
    "target": null
  },
  {
    "children": [
      122
    ],
    "dataType": null,
    "dist2sink": 7,
    "id": 120,
    "operation": "*",
    "parents": [
      22,
      106
    ],
    "target": null
  },
  {
    "children": [
      123
    ],
    "dataType": null,
    "dist2sink": 6,
    "id": 121,
    "operation": "*",
    "parents": [
      26,
      112
    ],
    "target": null
  },
  {
    "children": [
      123
    ],
    "dataType": null,
    "dist2sink": 6,
    "id": 122,
    "operation": "+",
    "parents": [
      119,
      120
    ],
    "target": null
  },
  {
    "children": [
      118
    ],
    "dataType": null,
    "dist2sink": 5,
    "id": 123,
    "operation": "+",
    "parents": [
      122,
      121
    ],
    "target": null
  },
  {
    "children": [
      125
    ],
    "dataType": null,
    "dist2sink": 6,
    "id": 124,
    "operation": "-",
    "parents": [
      37,
      49
    ],
    "target": null
  },
  {
    "children": [
      126
    ],
    "dataType": null,
    "dist2sink": 5,
    "id": 125,
    "operation": "*",
    "parents": [
      49,
      124
    ],
    "target": null
  },
  {
    "children": [
      143,
      144,
      145
    ],
    "dataType": null,
    "dist2sink": 4,
    "id": 126,
    "operation": "*",
    "parents": [
      131,
      125
    ],
    "target": "d2[2]"
  },
  {
    "children": [
      130
    ],
    "dataType": null,
    "dist2sink": 7,
    "id": 127,
    "operation": "*",
    "parents": [
      19,
      100
    ],
    "target": null
  },
  {
    "children": [
      130
    ],
    "dataType": null,
    "dist2sink": 7,
    "id": 128,
    "operation": "*",
    "parents": [
      23,
      106
    ],
    "target": null
  },
  {
    "children": [
      131
    ],
    "dataType": null,
    "dist2sink": 6,
    "id": 129,
    "operation": "*",
    "parents": [
      27,
      112
    ],
    "target": null
  },
  {
    "children": [
      131
    ],
    "dataType": null,
    "dist2sink": 6,
    "id": 130,
    "operation": "+",
    "parents": [
      127,
      128
    ],
    "target": null
  },
  {
    "children": [
      126
    ],
    "dataType": null,
    "dist2sink": 5,
    "id": 131,
    "operation": "+",
    "parents": [
      130,
      129
    ],
    "target": null
  },
  {
    "children": [
      133
    ],
    "dataType": null,
    "dist2sink": 6,
    "id": 132,
    "operation": "-",
    "parents": [
      37,
      55
    ],
    "target": null
  },
  {
    "children": [
      134
    ],
    "dataType": null,
    "dist2sink": 5,
    "id": 133,
    "operation": "*",
    "parents": [
      55,
      132
    ],
    "target": null
  },
  {
    "children": [
      146,
      147,
      148
    ],
    "dataType": null,
    "dist2sink": 4,
    "id": 134,
    "operation": "*",
    "parents": [
      139,
      133
    ],
    "target": "d2[3]"
  },
  {
    "children": [
      138
    ],
    "dataType": null,
    "dist2sink": 7,
    "id": 135,
    "operation": "*",
    "parents": [
      20,
      100
    ],
    "target": null
  },
  {
    "children": [
      138
    ],
    "dataType": null,
    "dist2sink": 7,
    "id": 136,
    "operation": "*",
    "parents": [
      24,
      106
    ],
    "target": null
  },
  {
    "children": [
      139
    ],
    "dataType": null,
    "dist2sink": 6,
    "id": 137,
    "operation": "*",
    "parents": [
      28,
      112
    ],
    "target": null
  },
  {
    "children": [
      139
    ],
    "dataType": null,
    "dist2sink": 6,
    "id": 138,
    "operation": "+",
    "parents": [
      135,
      136
    ],
    "target": null
  },
  {
    "children": [
      134
    ],
    "dataType": null,
    "dist2sink": 5,
    "id": 139,
    "operation": "+",
    "parents": [
      138,
      137
    ],
    "target": null
  },
  {
    "children": [
      169
    ],
    "dataType": "gradient",
    "dist2sink": 3,
    "id": 140,
    "operation": "*",
    "parents": [
      3,
      118
    ],
    "target": "g12[1][0]"
  },
  {
    "children": [
      171
    ],
    "dataType": "gradient",
    "dist2sink": 3,
    "id": 141,
    "operation": "*",
    "parents": [
      4,
      118
    ],
    "target": "g12[1][1]"
  },
  {
    "children": [
      173
    ],
    "dataType": "gradient",
    "dist2sink": 3,
    "id": 142,
    "operation": "*",
    "parents": [
      5,
      118
    ],
    "target": "g12[1][2]"
  },
  {
    "children": [
      175
    ],
    "dataType": "gradient",
    "dist2sink": 3,
    "id": 143,
    "operation": "*",
    "parents": [
      3,
      126
    ],
    "target": "g12[2][0]"
  },
  {
    "children": [
      177
    ],
    "dataType": "gradient",
    "dist2sink": 3,
    "id": 144,
    "operation": "*",
    "parents": [
      4,
      126
    ],
    "target": "g12[2][1]"
  },
  {
    "children": [
      179
    ],
    "dataType": "gradient",
    "dist2sink": 3,
    "id": 145,
    "operation": "*",
    "parents": [
      5,
      126
    ],
    "target": "g12[2][2]"
  },
  {
    "children": [
      181
    ],
    "dataType": "gradient",
    "dist2sink": 3,
    "id": 146,
    "operation": "*",
    "parents": [
      3,
      134
    ],
    "target": "g12[3][0]"
  },
  {
    "children": [
      183
    ],
    "dataType": "gradient",
    "dist2sink": 3,
    "id": 147,
    "operation": "*",
    "parents": [
      4,
      134
    ],
    "target": "g12[3][1]"
  },
  {
    "children": [
      185
    ],
    "dataType": "gradient",
    "dist2sink": 3,
    "id": 148,
    "operation": "*",
    "parents": [
      5,
      134
    ],
    "target": "g12[3][2]"
  },
  {
    "children": [
      203
    ],
    "dataType": "gradient",
    "dist2sink": 3,
    "id": 149,
    "operation": "*",
    "parents": [
      37,
      100
    ],
    "target": "g23[1][0]"
  },
  {
    "children": [
      205
    ],
    "dataType": "gradient",
    "dist2sink": 3,
    "id": 150,
    "operation": "*",
    "parents": [
      43,
      100
    ],
    "target": "g23[1][1]"
  },
  {
    "children": [
      207
    ],
    "dataType": "gradient",
    "dist2sink": 3,
    "id": 151,
    "operation": "*",
    "parents": [
      49,
      100
    ],
    "target": "g23[1][2]"
  },
  {
    "children": [
      209
    ],
    "dataType": "gradient",
    "dist2sink": 3,
    "id": 152,
    "operation": "*",
    "parents": [
      55,
      100
    ],
    "target": "g23[1][3]"
  },
  {
    "children": [
      211
    ],
    "dataType": "gradient",
    "dist2sink": 3,
    "id": 153,
    "operation": "*",
    "parents": [
      37,
      106
    ],
    "target": "g23[2][0]"
  },
  {
    "children": [
      213
    ],
    "dataType": "gradient",
    "dist2sink": 3,
    "id": 154,
    "operation": "*",
    "parents": [
      43,
      106
    ],
    "target": "g23[2][1]"
  },
  {
    "children": [
      215
    ],
    "dataType": "gradient",
    "dist2sink": 3,
    "id": 155,
    "operation": "*",
    "parents": [
      49,
      106
    ],
    "target": "g23[2][2]"
  },
  {
    "children": [
      217
    ],
    "dataType": "gradient",
    "dist2sink": 3,
    "id": 156,
    "operation": "*",
    "parents": [
      55,
      106
    ],
    "target": "g23[2][3]"
  },
  {
    "children": [
      219
    ],
    "dataType": "gradient",
    "dist2sink": 3,
    "id": 157,
    "operation": "*",
    "parents": [
      37,
      112
    ],
    "target": "g23[3][0]"
  },
  {
    "children": [
      221
    ],
    "dataType": "gradient",
    "dist2sink": 3,
    "id": 158,
    "operation": "*",
    "parents": [
      43,
      112
    ],
    "target": "g23[3][1]"
  },
  {
    "children": [
      223
    ],
    "dataType": "gradient",
    "dist2sink": 3,
    "id": 159,
    "operation": "*",
    "parents": [
      49,
      112
    ],
    "target": "g23[3][2]"
  },
  {
    "children": [
      225
    ],
    "dataType": "gradient",
    "dist2sink": 3,
    "id": 160,
    "operation": "*",
    "parents": [
      55,
      112
    ],
    "target": "g23[3][3]"
  },
  {
    "children": [
      187
    ],
    "dataType": "gradient",
    "dist2sink": 3,
    "id": 161,
    "operation": "*",
    "parents": [
      37,
      96
    ],
    "target": "g34[1][0]"
  },
  {
    "children": [
      189
    ],
    "dataType": "gradient",
    "dist2sink": 3,
    "id": 162,
    "operation": "*",
    "parents": [
      63,
      96
    ],
    "target": "g34[1][1]"
  },
  {
    "children": [
      191
    ],
    "dataType": "gradient",
    "dist2sink": 3,
    "id": 163,
    "operation": "*",
    "parents": [
      71,
      96
    ],
    "target": "g34[1][2]"
  },
  {
    "children": [
      193
    ],
    "dataType": "gradient",
    "dist2sink": 3,
    "id": 164,
    "operation": "*",
    "parents": [
      79,
      96
    ],
    "target": "g34[1][3]"
  },
  {
    "children": [
      195
    ],
    "dataType": "gradient",
    "dist2sink": 3,
    "id": 165,
    "operation": "*",
    "parents": [
      37,
      97
    ],
    "target": "g34[2][0]"
  },
  {
    "children": [
      197
    ],
    "dataType": "gradient",
    "dist2sink": 3,
    "id": 166,
    "operation": "*",
    "parents": [
      63,
      97
    ],
    "target": "g34[2][1]"
  },
  {
    "children": [
      199
    ],
    "dataType": "gradient",
    "dist2sink": 3,
    "id": 167,
    "operation": "*",
    "parents": [
      71,
      97
    ],
    "target": "g34[2][2]"
  },
  {
    "children": [
      201
    ],
    "dataType": "gradient",
    "dist2sink": 3,
    "id": 168,
    "operation": "*",
    "parents": [
      79,
      97
    ],
    "target": "g34[2][3]"
  },
  {
    "children": [
      170
    ],
    "dataType": "gradient",
    "dist2sink": 2,
    "id": 169,
    "operation": "*",
    "parents": [
      2,
      140
    ],
    "target": "g12[1][0]"
  },
  {
    "children": [
      1
    ],
    "dataType": "model",
    "dist2sink": 1,
    "id": 170,
    "operation": "-",
    "parents": [
      8,
      169
    ],
    "target": "w12[1][0]"
  },
  {
    "children": [
      172
    ],
    "dataType": "gradient",
    "dist2sink": 2,
    "id": 171,
    "operation": "*",
    "parents": [
      2,
      141
    ],
    "target": "g12[1][1]"
  },
  {
    "children": [
      1
    ],
    "dataType": "model",
    "dist2sink": 1,
    "id": 172,
    "operation": "-",
    "parents": [
      9,
      171
    ],
    "target": "w12[1][1]"
  },
  {
    "children": [
      174
    ],
    "dataType": "gradient",
    "dist2sink": 2,
    "id": 173,
    "operation": "*",
    "parents": [
      2,
      142
    ],
    "target": "g12[1][2]"
  },
  {
    "children": [
      1
    ],
    "dataType": "model",
    "dist2sink": 1,
    "id": 174,
    "operation": "-",
    "parents": [
      10,
      173
    ],
    "target": "w12[1][2]"
  },
  {
    "children": [
      176
    ],
    "dataType": "gradient",
    "dist2sink": 2,
    "id": 175,
    "operation": "*",
    "parents": [
      2,
      143
    ],
    "target": "g12[2][0]"
  },
  {
    "children": [
      1
    ],
    "dataType": "model",
    "dist2sink": 1,
    "id": 176,
    "operation": "-",
    "parents": [
      11,
      175
    ],
    "target": "w12[2][0]"
  },
  {
    "children": [
      178
    ],
    "dataType": "gradient",
    "dist2sink": 2,
    "id": 177,
    "operation": "*",
    "parents": [
      2,
      144
    ],
    "target": "g12[2][1]"
  },
  {
    "children": [
      1
    ],
    "dataType": "model",
    "dist2sink": 1,
    "id": 178,
    "operation": "-",
    "parents": [
      12,
      177
    ],
    "target": "w12[2][1]"
  },
  {
    "children": [
      180
    ],
    "dataType": "gradient",
    "dist2sink": 2,
    "id": 179,
    "operation": "*",
    "parents": [
      2,
      145
    ],
    "target": "g12[2][2]"
  },
  {
    "children": [
      1
    ],
    "dataType": "model",
    "dist2sink": 1,
    "id": 180,
    "operation": "-",
    "parents": [
      13,
      179
    ],
    "target": "w12[2][2]"
  },
  {
    "children": [
      182
    ],
    "dataType": "gradient",
    "dist2sink": 2,
    "id": 181,
    "operation": "*",
    "parents": [
      2,
      146
    ],
    "target": "g12[3][0]"
  },
  {
    "children": [
      1
    ],
    "dataType": "model",
    "dist2sink": 1,
    "id": 182,
    "operation": "-",
    "parents": [
      14,
      181
    ],
    "target": "w12[3][0]"
  },
  {
    "children": [
      184
    ],
    "dataType": "gradient",
    "dist2sink": 2,
    "id": 183,
    "operation": "*",
    "parents": [
      2,
      147
    ],
    "target": "g12[3][1]"
  },
  {
    "children": [
      1
    ],
    "dataType": "model",
    "dist2sink": 1,
    "id": 184,
    "operation": "-",
    "parents": [
      15,
      183
    ],
    "target": "w12[3][1]"
  },
  {
    "children": [
      186
    ],
    "dataType": "gradient",
    "dist2sink": 2,
    "id": 185,
    "operation": "*",
    "parents": [
      2,
      148
    ],
    "target": "g12[3][2]"
  },
  {
    "children": [
      1
    ],
    "dataType": "model",
    "dist2sink": 1,
    "id": 186,
    "operation": "-",
    "parents": [
      16,
      185
    ],
    "target": "w12[3][2]"
  },
  {
    "children": [
      188
    ],
    "dataType": "gradient",
    "dist2sink": 2,
    "id": 187,
    "operation": "*",
    "parents": [
      2,
      161
    ],
    "target": "g34[1][0]"
  },
  {
    "children": [
      1
    ],
    "dataType": "model",
    "dist2sink": 1,
    "id": 188,
    "operation": "-",
    "parents": [
      29,
      187
    ],
    "target": "w34[1][0]"
  },
  {
    "children": [
      190
    ],
    "dataType": "gradient",
    "dist2sink": 2,
    "id": 189,
    "operation": "*",
    "parents": [
      2,
      162
    ],
    "target": "g34[1][1]"
  },
  {
    "children": [
      1
    ],
    "dataType": "model",
    "dist2sink": 1,
    "id": 190,
    "operation": "-",
    "parents": [
      30,
      189
    ],
    "target": "w34[1][1]"
  },
  {
    "children": [
      192
    ],
    "dataType": "gradient",
    "dist2sink": 2,
    "id": 191,
    "operation": "*",
    "parents": [
      2,
      163
    ],
    "target": "g34[1][2]"
  },
  {
    "children": [
      1
    ],
    "dataType": "model",
    "dist2sink": 1,
    "id": 192,
    "operation": "-",
    "parents": [
      31,
      191
    ],
    "target": "w34[1][2]"
  },
  {
    "children": [
      194
    ],
    "dataType": "gradient",
    "dist2sink": 2,
    "id": 193,
    "operation": "*",
    "parents": [
      2,
      164
    ],
    "target": "g34[1][3]"
  },
  {
    "children": [
      1
    ],
    "dataType": "model",
    "dist2sink": 1,
    "id": 194,
    "operation": "-",
    "parents": [
      32,
      193
    ],
    "target": "w34[1][3]"
  },
  {
    "children": [
      196
    ],
    "dataType": "gradient",
    "dist2sink": 2,
    "id": 195,
    "operation": "*",
    "parents": [
      2,
      165
    ],
    "target": "g34[2][0]"
  },
  {
    "children": [
      1
    ],
    "dataType": "model",
    "dist2sink": 1,
    "id": 196,
    "operation": "-",
    "parents": [
      33,
      195
    ],
    "target": "w34[2][0]"
  },
  {
    "children": [
      198
    ],
    "dataType": "gradient",
    "dist2sink": 2,
    "id": 197,
    "operation": "*",
    "parents": [
      2,
      166
    ],
    "target": "g34[2][1]"
  },
  {
    "children": [
      1
    ],
    "dataType": "model",
    "dist2sink": 1,
    "id": 198,
    "operation": "-",
    "parents": [
      34,
      197
    ],
    "target": "w34[2][1]"
  },
  {
    "children": [
      200
    ],
    "dataType": "gradient",
    "dist2sink": 2,
    "id": 199,
    "operation": "*",
    "parents": [
      2,
      167
    ],
    "target": "g34[2][2]"
  },
  {
    "children": [
      1
    ],
    "dataType": "model",
    "dist2sink": 1,
    "id": 200,
    "operation": "-",
    "parents": [
      35,
      199
    ],
    "target": "w34[2][2]"
  },
  {
    "children": [
      202
    ],
    "dataType": "gradient",
    "dist2sink": 2,
    "id": 201,
    "operation": "*",
    "parents": [
      2,
      168
    ],
    "target": "g34[2][3]"
  },
  {
    "children": [
      1
    ],
    "dataType": "model",
    "dist2sink": 1,
    "id": 202,
    "operation": "-",
    "parents": [
      36,
      201
    ],
    "target": "w34[2][3]"
  },
  {
    "children": [
      204
    ],
    "dataType": "gradient",
    "dist2sink": 2,
    "id": 203,
    "operation": "*",
    "parents": [
      2,
      149
    ],
    "target": "g23[1][0]"
  },
  {
    "children": [
      1
    ],
    "dataType": "model",
    "dist2sink": 1,
    "id": 204,
    "operation": "-",
    "parents": [
      17,
      203
    ],
    "target": "w23[1][0]"
  },
  {
    "children": [
      206
    ],
    "dataType": "gradient",
    "dist2sink": 2,
    "id": 205,
    "operation": "*",
    "parents": [
      2,
      150
    ],
    "target": "g23[1][1]"
  },
  {
    "children": [
      1
    ],
    "dataType": "model",
    "dist2sink": 1,
    "id": 206,
    "operation": "-",
    "parents": [
      18,
      205
    ],
    "target": "w23[1][1]"
  },
  {
    "children": [
      208
    ],
    "dataType": "gradient",
    "dist2sink": 2,
    "id": 207,
    "operation": "*",
    "parents": [
      2,
      151
    ],
    "target": "g23[1][2]"
  },
  {
    "children": [
      1
    ],
    "dataType": "model",
    "dist2sink": 1,
    "id": 208,
    "operation": "-",
    "parents": [
      19,
      207
    ],
    "target": "w23[1][2]"
  },
  {
    "children": [
      210
    ],
    "dataType": "gradient",
    "dist2sink": 2,
    "id": 209,
    "operation": "*",
    "parents": [
      2,
      152
    ],
    "target": "g23[1][3]"
  },
  {
    "children": [
      1
    ],
    "dataType": "model",
    "dist2sink": 1,
    "id": 210,
    "operation": "-",
    "parents": [
      20,
      209
    ],
    "target": "w23[1][3]"
  },
  {
    "children": [
      212
    ],
    "dataType": "gradient",
    "dist2sink": 2,
    "id": 211,
    "operation": "*",
    "parents": [
      2,
      153
    ],
    "target": "g23[2][0]"
  },
  {
    "children": [
      1
    ],
    "dataType": "model",
    "dist2sink": 1,
    "id": 212,
    "operation": "-",
    "parents": [
      21,
      211
    ],
    "target": "w23[2][0]"
  },
  {
    "children": [
      214
    ],
    "dataType": "gradient",
    "dist2sink": 2,
    "id": 213,
    "operation": "*",
    "parents": [
      2,
      154
    ],
    "target": "g23[2][1]"
  },
  {
    "children": [
      1
    ],
    "dataType": "model",
    "dist2sink": 1,
    "id": 214,
    "operation": "-",
    "parents": [
      22,
      213
    ],
    "target": "w23[2][1]"
  },
  {
    "children": [
      216
    ],
    "dataType": "gradient",
    "dist2sink": 2,
    "id": 215,
    "operation": "*",
    "parents": [
      2,
      155
    ],
    "target": "g23[2][2]"
  },
  {
    "children": [
      1
    ],
    "dataType": "model",
    "dist2sink": 1,
    "id": 216,
    "operation": "-",
    "parents": [
      23,
      215
    ],
    "target": "w23[2][2]"
  },
  {
    "children": [
      218
    ],
    "dataType": "gradient",
    "dist2sink": 2,
    "id": 217,
    "operation": "*",
    "parents": [
      2,
      156
    ],
    "target": "g23[2][3]"
  },
  {
    "children": [
      1
    ],
    "dataType": "model",
    "dist2sink": 1,
    "id": 218,
    "operation": "-",
    "parents": [
      24,
      217
    ],
    "target": "w23[2][3]"
  },
  {
    "children": [
      220
    ],
    "dataType": "gradient",
    "dist2sink": 2,
    "id": 219,
    "operation": "*",
    "parents": [
      2,
      157
    ],
    "target": "g23[3][0]"
  },
  {
    "children": [
      1
    ],
    "dataType": "model",
    "dist2sink": 1,
    "id": 220,
    "operation": "-",
    "parents": [
      25,
      219
    ],
    "target": "w23[3][0]"
  },
  {
    "children": [
      222
    ],
    "dataType": "gradient",
    "dist2sink": 2,
    "id": 221,
    "operation": "*",
    "parents": [
      2,
      158
    ],
    "target": "g23[3][1]"
  },
  {
    "children": [
      1
    ],
    "dataType": "model",
    "dist2sink": 1,
    "id": 222,
    "operation": "-",
    "parents": [
      26,
      221
    ],
    "target": "w23[3][1]"
  },
  {
    "children": [
      224
    ],
    "dataType": "gradient",
    "dist2sink": 2,
    "id": 223,
    "operation": "*",
    "parents": [
      2,
      159
    ],
    "target": "g23[3][2]"
  },
  {
    "children": [
      1
    ],
    "dataType": "model",
    "dist2sink": 1,
    "id": 224,
    "operation": "-",
    "parents": [
      27,
      223
    ],
    "target": "w23[3][2]"
  },
  {
    "children": [
      226
    ],
    "dataType": "gradient",
    "dist2sink": 2,
    "id": 225,
    "operation": "*",
    "parents": [
      2,
      160
    ],
    "target": "g23[3][3]"
  },
  {
    "children": [
      1
    ],
    "dataType": "model",
    "dist2sink": 1,
    "id": 226,
    "operation": "-",
    "parents": [
      28,
      225
    ],
    "target": "w23[3][3]"
  }
]